workshopR
…
Note que mpg possui 11 colunas

Suponha que desejamos trabalhar apenas com as colunas manufacturer, hwy e displ

Para isso, vamos usar a função select:

mpg %>%
  select(manufacturer, hwy, displ)
#> # A tibble: 234 x 3
#>    manufacturer   hwy displ
#>    <chr>        <int> <dbl>
#>  1 audi            29   1.8
#>  2 audi            29   1.8
#>  3 audi            31   2  
#>  4 audi            30   2  
#>  5 audi            26   2.8
#>  6 audi            26   2.8
#>  7 audi            27   3.1
#>  8 audi            26   1.8
#>  9 audi            25   1.8
#> 10 audi            28   2  
#> # … with 224 more rows
…
Considerando apenas o ano de 2007, crie um gráfico de dispersão de Expectativa de Vida versus PIB per Capita. O que é possível perceber?

Vamos verificar se há alguma sugestão de influência do continente naquilo que vimos no gráfico anterior. Para isso, pinte os pontos do gráfico anterior de acordo com o continente de cada país. O que este novo gráfico nos sugere?

Verificar um ano apenas é muito pouco. Isto não nos diz se houve alguma evolução na expectativa de vida nos países durante a história. Vamos verificar se, ao menos na América do Sul, a expectativa de vida aumentou entre 1952 e 2007. Primeiramente, vamos preparar o conjunto de dados para análise, mantendo apenas os anos e os países que nos interessam:

anos   <- seq(from = 1952, to = 2007, by = 5)
paises <- c("Argentina", "Bolivia", "Brazil", "Chile", 
  "Colombia", "Ecuador", "Paraguay", "Peru", "Uruguay", 
  "Venezuela")

gapminder %>%
  filter(ano %in% anos) %>%
  filter(pais %in% paises)
#> # A tibble: 120 x 6
#>    pais      continente   ano expVida      pop pibPerCapita
#>    <fct>     <fct>      <int>   <dbl>    <int>        <dbl>
#>  1 Argentina Americas    1952    62.5 17876956        5911.
#>  2 Argentina Americas    1957    64.4 19610538        6857.
#>  3 Argentina Americas    1962    65.1 21283783        7133.
#>  4 Argentina Americas    1967    65.6 22934225        8053.
#>  5 Argentina Americas    1972    67.1 24779799        9443.
#>  6 Argentina Americas    1977    68.5 26983828       10079.
#>  7 Argentina Americas    1982    69.9 29341374        8998.
#>  8 Argentina Americas    1987    70.8 31620918        9140.
#>  9 Argentina Americas    1992    71.9 33958947        9308.
#> 10 Argentina Americas    1997    73.3 36203463       10967.
#> # … with 110 more rows
…
